{
  "locals": "./locals.json",
  "templates": "./sources/templates",
  "contents": "./sources/contents",
  "output": "./build",
  "plugins": [
    "wintersmith-nunjucka"
  ],
  "require": {
    "moment": "moment",
    "_": "underscore",
    "typogr": "typogr"
  },
  "markdown": {
    "smartLists": true,
    "smartypants": true
  },
  "paginator": {
    "perPage": 3
  }
}
